Sorting,HH name RO,HH name EN,Takeaway internal name,Variable,Name EN,Name RO,Title EN,Title RO,URL EN,URL RO,COMMENT,Direct match,COUNT
1,Pizza,Pizza,Pizza,subcategory_271,Italian style pizza,,Order Italian style pizza in,,order-italian-style-pizza,,,Yes,91
2,International,International,International,subcategory_1486,International,,Order International food in,,order-international-food-in,,,Yes,90
3,Italienesc,Italian,Italian,subcategory_21,Italian food,,Order Italian food in,,order-italian-food,,,Yes,64
4,American,American,American,subcategory_1296,American,,Order American food in,,order-american-food,,,Yes,59
5,Burgeri,Burgers,Burgers,subcategory_1276,,,,,,,,,36
,Fast Food,Fast Food,,,,,,,,,,No,36
6,Romanesc,Romanian,,subcategory_2344,,,,,,,,No,36
7,Traditional,Traditional,,subcategory_2354,,,,,,,,No,32
8,Sanatos si vegetarian,Healthy & vegetarian,Vegetarian,subcategory_391,,,,,,,Split up in two types,Yes,
9,,,Healthy food,subcategory_1526,,,,,,,,Yes,20
10,Chinezesc,Chinese,Chinese,subcategory_41,,,,,,,,Yes,20
11,Turcesc,Turkish,Turkish,subcategory_31,,,,,,,,Yes,20
,Livrare Gratuita,Free Delivery,,,,,,,,,,No,20
,Mediteranean,Mediterranean,,,,,,,,,,,16
12,Shaorma,Shaorma,Shoarma,subcategory_811,,,,,,,,yes,15
13,Mancare greceasca,Greek,Greek Mediterranean,subcategory_501,,,,,,,,Yes,15
14,Libanez,Lebanese,Lebanese,subcategory_491,,,,,,,,Yes,12
15,Preparate din peste si fructe de mare,Sea Food,Sea Food,subcategory_1476,,,,,,,,yes,9
16,Asiatic,Asian,,subcategory_1864,,,,,,,,no,8
17,Japonez,Japanese,Japanese Oriental,subcategory_551,,,,,,,,yes,7
18,Gyros,Gyros,Gyros,subcategory_1356,,,,,,,,yes,5
19,Sandwhich tip SUB,Sandwhich SUB,Sandwiches,subcategory_671,,,,,,,,Yes,5
20,Mexican,Mexican,Mexican,subcategory_221,,,,,,,,Yes,4
21,Cofetarie - Patiserie,Confectionary - Pastry,,subcategory_2364,,,,,,,,,4
22,Indian,Indian,Indian,subcategory_1134,,,,,,,,Yes,3
23,Arabesc,Arab,Arab,subcategory_1566,,,,,,,,yes,3
,Mancare orientala,Oriental,Oriental,subcategory_2024,,,,,,,,yes,3
24,Pancakes,Pancakes,Pancakes,subcategory_1674,,,,,,,,Yes,2
25,Steak House,Steak House,Steak,subcategory_401,,,,,,,,Yes,2
26,All day breakfast,All day Breakfast,Breakfast,subcategory_681,,,,,,,,Yes,2
27,Desert,Dessert,Desserts,subcategory_954,,,,,,,,Yes,2
,Mancare de post,Fasting Food,,,,,,,,,,no,1
,Catering,Catering,,,,,,,,,,no,1
28,Mancare coreeana,Coreean,Korean,subcategory_1114,,,,,,,,Yes,1
29,Mancare Thailandeza,Thai Food,Thai,subcategory_1124,,,,,,,,Yes,1
30,Clatitarie,Pancakes,Pancakes,subcategory_1674,,,,,,,Same as row 29?,Yes,1